…
## Warning: package 'bindrcpp' was built under R version 3.4.4

datasets_df

## # A tibble: 189 x 5
##    table      nrows class   type    variable
##    <chr>      <int> <chr>   <chr>   <chr>   
##  1 airquality   153 integer integer Ozone   
##  2 airquality   153 integer integer Solar.R 
##  3 airquality   153 integer integer Temp    
##  4 airquality   153 integer integer Month   
##  5 airquality   153 integer integer Day     
##  6 airquality   153 numeric double  Wind    
##  7 anscombe      11 numeric double  x1      
##  8 anscombe      11 numeric double  x2      
##  9 anscombe      11 numeric double  x3      
## 10 anscombe      11 numeric double  x4      
## # ... with 179 more rows
…
